Intermediate R for Social Science
…
mean(Afghanistandata$bd_high)

## [1] 1616.5

Finding Data

Lets assume we do not want to limit ourselves to looking at data during the war in Afghanistan, but instead at data that involves Afghanistan (regardless if battles deaths occurred in Afghanistan per se). We could do so by filtering each variable with Afghanistan. Or, more simply, we could filter all the data for any variables with the string pattern, Afghanistan. There are numerous handy shortcuts in dplyr that can help us identify and find subsets of the data/specific values and information in the data.

data %>%
  filter_all(any_vars(str_detect(., pattern = "Afghanistan"))) %>%
  arrange(year) %>%
  select(conflict_id, location_inc, side_a, side_a_2nd, side_b, side_b_2nd, year, battle_location, contains("bd"))

## # A tibble: 90 x 11
##    conflict_id location_inc side_a side_a_2nd side_b side_b_2nd  year
##          <dbl> <chr>        <chr>  <chr>      <chr>  <chr>      <dbl>
##  1         333 Afghanistan  Gover Governmen Jam'i <NA>        1989
##  2         333 Afghanistan  Gover Governmen Hizb- <NA>        1989
##  3         333 Afghanistan  Gover Governmen Mahaz <NA>        1989
##  4         333 Afghanistan  Gover Governmen Hizb- <NA>        1989
##  5         333 Afghanistan  Gover Governmen Hizb- <NA>        1989
##  6         333 Afghanistan  Gover <NA>       Jam'i <NA>        1990
##  7         333 Afghanistan  Gover <NA>       Hizb- <NA>        1990
##  8         333 Afghanistan  Gover <NA>       Hizb- <NA>        1990
##  9         333 Afghanistan  Gover <NA>       Hizb- <NA>        1990
## 10         333 Afghanistan  Gover <NA>       Milit <NA>        1990
## #  with 80 more rows, and 4 more variables: battle_location <chr>,
## #   bd_best <dbl>, bd_low <dbl>, bd_high <dbl>

Grouping Data

Suppose we wanted to know where and when the most amount of battle deaths occured. We could arrange the data to show the most battle death occurrences first. But, if we wanted to know where and when the most battle death occurred (in the aggregate), we should group by region/battle location and year and then tally up the battle deaths to see which region/battle location and year have the most battle death occurrences.

data %>%
  arrange(desc(bd_best)) %>%
  select(conflict_id, battle_location, year, bd_best)

## # A tibble: 1,565 x 4
##    conflict_id battle_location                          year bd_best
##          <dbl> <chr>                                   <dbl>   <dbl>
##  1         299 Iraq, Lebanon, Syria                     2013   68614
##  2         299 Lebanon, Syria                           2014   54547
##  3         409 Eritrea, Ethiopia                        2000   50000
##  4         409 Eritrea, Ethiopia                        1999   47192
##  5         299 Syria, Turkey                            2012   39939
##  6         299 Jordan, Syria                            2015   33956
##  7         275 Ethiopia                                 1990   30633
##  8         299 Syria                                    2016   27207
##  9         333 Afghanistan, Pakistan                    2018   22837
## 10         371 Iraq, Kuwait, Philippines, Saudi Arabia  1991   21790
## #  with 1,555 more rows
…
## # A tibble: 6 x 2
##   region      n
##    <dbl>  <dbl>
## 1      4 458105
## 2      2 444290
## 3      3 397851
## 4      1  58848
## 5      5  40464
## 6     NA   9324

data %>%
  group_by(battle_location) %>%
  tally(bd_best, sort = TRUE)

## # A tibble: 171 x 2
##    battle_location            n
##    <chr>                  <dbl>
##  1 Afghanistan, Pakistan 150402
##  2 Eritrea, Ethiopia      98192
##  3 Ethiopia               88036
##  4 Syria                  77440
##  5 Iraq, Lebanon, Syria   68614
##  6 Afghanistan            66970
##  7 Lebanon, Syria         63974
##  8 Sri Lanka              57366
##  9 Syria, Turkey          40571
## 10 Sudan                  37398
## #  with 161 more rows

data %>%
  group_by(year) %>%
  tally(bd_best, sort = TRUE)

## # A tibble: 30 x 2
##     year      n
##    <dbl>  <dbl>
##  1  2014 104555
##  2  2015  97328
##  3  2013  90596
##  4  2016  85799
##  5  1999  80578
##  6  1990  79681
##  7  2000  77357
##  8  1991  70236
##  9  2017  67101
## 10  2012  63257
## #  with 20 more rows

data %>%
  group_by(region, year) %>%
  tally(bd_best, sort = TRUE)

## # A tibble: 152 x 3
## # Groups:   region [6]
##    region  year     n
##     <dbl> <dbl> <dbl>
##  1      2  2014 73051
##  2      2  2013 71684
##  3      2  2015 64595
##  4      4  1990 64585
##  5      4  1999 61216
##  6      4  2000 59700
##  7      2  2016 55376
##  8      2  2012 43734
##  9      2  2017 34621
## 10      4  1989 34546
## #  with 142 more rows
…
